module gitlab.com/golang-learn1/todo-app

go 1.13

require (
	github.com/gin-gonic/gin v1.7.2
	github.com/go-playground/validator/v10 v10.7.0 // indirect
	github.com/leodido/go-urn v1.2.1 // indirect
	github.com/mattn/go-isatty v0.0.13 // indirect
	github.com/modern-go/concurrent v0.0.0-20180306012644-bacd9c7ef1dd // indirect
	github.com/spf13/viper v1.8.1
	github.com/ugorji/go v1.2.6 // indirect
	golang.org/x/crypto v0.0.0-20210616213533-5ff15b29337e // indirect
	golang.org/x/sys v0.0.0-20210630005230-0f9fa26af87c // indirect
	golang.org/x/text v0.3.6 // indirect
	google.golang.org/protobuf v1.27.1 // indirect
)
